{
  "todos": [
    {
      "id": 4,
      "text": "Do the dishes",
      "complete": false
    },
    {
      "id": 5,
      "text": "Floss the teeth",
      "complete": false
    },
    {
      "id": 6,
      "text": "Play videogames",
      "complete": true
    },
    {
      "text": "Go to gym",
      "complete": true,
      "id": 7
    }
  ]
}